AWSTATS DATA FILE 6.95 (build 1.943)
# If you remove this file, all statistics for date 201509 will be lost/reset.
# Last config file used to build this data file was /etc/awstats/awstats.pikcher.me.conf.

# Position (offset in bytes) in this file for beginning of each section for
# direct I/O access. If you made changes somewhere in this file, you should
# also remove completely the MAP section (AWStats will rewrite it at next
# update).
BEGIN_MAP 27
POS_GENERAL 1956                
POS_TIME 2617                
POS_VISITOR 16357               
POS_DAY 47582               
POS_DOMAIN 3619                
POS_LOGIN 3855                
POS_ROBOT 4010                
POS_WORMS 4503                
POS_EMAILSENDER 4634                
POS_EMAILRECEIVER 4777                
POS_SESSION 48557               
POS_SIDER 48771               
POS_FILETYPES 4912                
POS_OS 5233                
POS_BROWSER 5450                
POS_SCREENSIZE 7486                
POS_UNKNOWNREFERER 7560                
POS_UNKNOWNREFERERBROWSER 7927                
POS_ORIGIN 8112                
POS_SEREFERRALS 8261                
POS_PAGEREFS 8442                
POS_SEARCHWORDS 9412                
POS_KEYWORDS 12924               
POS_MISC 2279                
POS_ERRORS 15321               
POS_CLUSTER 3711                
POS_SIDER_404 15467               
END_MAP

# LastLine    = Date of last record processed - Last record line number in last log - Last record offset in last log - Last record signature value
# FirstTime   = Date of first visit for history file
# LastTime    = Date of last visit for history file
# LastUpdate  = Date of last update - Nb of parsed records - Nb of parsed old records - Nb of parsed new records - Nb of parsed corrupted - Nb of parsed dropped
# TotalVisits = Number of visits
# TotalUnique = Number of unique visitors
# MonthHostsKnown   = Number of hosts known
# MonthHostsUnKnown = Number of hosts unknown
BEGIN_GENERAL 8
LastLine 20151001012802 1 0 12551992878787
FirstTime 0
LastTime 20150930234400
LastUpdate 20151002003319 1 0 0 0 0
TotalVisits 711                 
TotalUnique 550                 
MonthHostsKnown 0                   
MonthHostsUnknown 850                 
END_GENERAL

# Misc ID - Pages - Hits - Bandwidth
BEGIN_MISC 10
QuickTimeSupport 0 0 0
JavaEnabled 0 0 0
JavascriptDisabled 0 0 0
PDFSupport 0 0 0
WindowsMediaPlayerSupport 0 0 0
AddToFavourites 0 251 0
RealPlayerSupport 0 0 0
TotalMisc 0 0 0
DirectorSupport 0 0 0
FlashSupport 0 0 0
END_MISC

# Hour - Pages - Hits - Bandwidth - Not viewed Pages - Not viewed Hits - Not viewed Bandwidth
BEGIN_TIME 24
0 185 2093 153519499 81 145 2583545
1 93 1340 103438872 398 436 7878239
2 70 943 68247220 101 171 6428267
3 65 435 27029213 110 152 3269148
4 36 549 40639867 65 102 3384727
5 60 864 57620090 91 120 2658788
6 77 1872 144332057 130 153 3364487
7 48 926 67767552 98 130 2688794
8 159 2012 155543582 63 96 2010990
9 298 4687 362767204 217 255 4334269
10 316 4224 299219081 68 92 1446322
11 342 4590 363408632 196 472 6046996
12 408 4982 363225830 127 196 2826054
13 503 4386 331723341 129 170 2320806
14 527 7378 577712836 121 224 6315064
15 431 5225 379731420 131 228 3688303
16 509 5474 392031291 170 253 4379374
17 207 2937 206211578 255 301 4735845
18 281 4055 307736393 215 301 7806670
19 185 2532 187689326 102 176 3608224
20 222 3113 234477190 462 507 7662594
21 161 2615 206447680 58 82 1637731
22 348 5106 394268037 232 280 8578045
23 272 3598 262781974 142 193 7217323
END_TIME

# Domain - Pages - Hits - Bandwidth
# The 10 first Pages must be first (order not required for others)
BEGIN_DOMAIN 1
ip 5803 75936 5687569765
END_DOMAIN

# Cluster ID - Pages - Hits - Bandwidth
BEGIN_CLUSTER 0
END_CLUSTER

# Login - Pages - Hits - Bandwidth - Last visit
# The 10 first Pages must be first (order not required for others)
BEGIN_LOGIN 0
END_LOGIN

# Robot ID - Hits - Bandwidth - Last visit - Hits on robots.txt
# The 10 first Hits must be first (order not required for others)
BEGIN_ROBOT 10
yandex 2762 56156176 20150930214123 0
googlebot 511 6078871 20150930164342 0
crawl 294 3536166 20150914115304 0
bot[\s_+:,\.\;\/\\-] 245 14644774 20150930125232 0
mj12bot 159 4379278 20150930135146 0
favicon 5 76113 20150919201540 0
y!j 5 27878 20150925201832 0
slurp 5 43054 20150916133612 0
surveybot 2 30449 20150923171936 0
python 1 15090 20150903170223 0
END_ROBOT

# Worm ID - Hits - Bandwidth - Last visit
# The 5 first Hits must be first (order not required for others)
BEGIN_WORMS 0
END_WORMS

# EMail - Hits - Bandwidth - Last visit
# The 20 first Hits must be first (order not required for others)
BEGIN_EMAILSENDER 0
END_EMAILSENDER

# EMail - Hits - Bandwidth - Last visit
# The 20 first hits must be first (order not required for others)
BEGIN_EMAILRECEIVER 0
END_EMAILRECEIVER

# Files type - Hits - Bandwidth - Bandwidth without compression - Bandwidth after compression
BEGIN_FILETYPES 13
css 5450 28025467 0 0
eot 297 11917008 0 0
png 22229 2198519243 0 0
ttf 595 71778934 0 0
woff 1806 49562221 0 0
txt 1 286 0 0
map 3 27177 0 0
php 210 3127879 0 0
html 2891 47880234 0 0
js 3823 96039143 0 0
jpg 37940 3153872587 0 0
jpeg 525 26569447 0 0
gif 166 250139 0 0
END_FILETYPES

# OS ID - Hits
BEGIN_OS 15
linuxandroid 5931
winxp 5780
winlong 532
unix 1
winnt 2006
linuxubuntu 2
win98 1
winvista 6772
linux 550
macosx 15833
winunknown 69
win2003 1
j2me 122
Unknown 267
win2008 38069
END_OS

# Browser ID - Hits
BEGIN_BROWSER 105
msie6.0 25
chrome44.0.2403.125 770
chrome40.0.2214.115 5
chrome45.0.2454.85 14318
chrome11.0.696.0 1
safari3.0 1
chrome12.0.702.0 1
chrome44.0.2403.130 1
firefox26.0 351
chrome28.0.1500.94 190
chrome39.0.2171.95 1
firefox18.0 2
chrome31.0.1650.57 1128
firefox34.0 3
chrome31.0.1650.63 1857
chrome24.0.1312.71 61
safari5.0.2 125
msie8.0 367
msie7.0 4
chrome8.0.552.343 1
firefox3.6.1 1
chrome37.0.2062.120 1
firefox41.0 3
chrome27.0.1453 120
chrome41.0.2272.89 1
konqueror3 1
chrome42.0.2311.152 231
chrome31.0.1650.59 78
chrome44.0.2403.117 1
chrome18.0.1025.45 6
chrome45.0.2454.99 2443
firefox40.0 6636
chrome38.0.2125.509 204
lg\- 1
chrome46.0.2467.2 1
firefox29.0 1
firefox38.0 3
firefox7.0.1 1
firefox12.0 187
chrome30.0.1599.69 113
chrome32.0.1700.107 722
chrome36.0.1985.143 2717
firefox33.0 1
mozilla 2551
firefox25.0 896
chrome47.0.2517.0 186
chrome44.0.2403.157 1862
chrome11.0.678.0 1
netscape5.0 3
chrome33.0.1750.117 193
chrome42.0.2311.254 151
chrome45.0.2421.0 1
chrome10.0.601.0 1
firefox3.6.3 2
chrome45.0.2454.84 1354
chrome44.0.2403.133 640
chrome40.0.2214.93 119
safari 199
chrome37.0.2062.124 379
safari7.0 1351
firefox4.0.1 15
chrome43.0.2357.124 3201
android 1858
chrome28.0.1500.95 380
safari8.0.7 631
chrome42.0.2311.111 218
firefox24.0 204
opera9.80 762
firefox31.0 2
iphone 1005
chrome45.0.2454.93 5655
chrome41.0.2272.101 1
chrome43.0.2357.93 450
safari8.0 9015
msie9.0 1338
chrome37.0.2062.103 12
Unknown 195
firefox27.0 5
firefox11.0 40
chrome30.0.0.0 1
chrome39.0.2171.93 315
safari8.0.8 450
chrome18.0.1025.166 205
chrome32.0.1725.115 1
safari6.1.3 1
chrome44.0.2403.155 1319
chrome41.0.2272.118 138
chrome35.0.1916.141 210
msie5.5 1
chrome28.0.1500.71 4
chrome45.2.2454.18 1
chrome22.0.1229.95 2
chrome43.0.2357.130 45
chrome44.0.2403.107 1
nokia 48
chrome45.0.2454.94 315
safari9.0 1759
chrome19.0.1084.5409 11
chrome45.0.2454.101 1103
firefox39.0 145
chrome35.0.1916.153 124
firefox22.0 1
msie10.0 1524
chrome43.0.2357.134 529
chrome47.0.2516.0 122
END_BROWSER

# Screen size - Hits
BEGIN_SCREENSIZE 0
END_SCREENSIZE

# Unknown referer OS - Last visit date
BEGIN_UNKNOWNREFERER 5
\ 20150923101046
Mozilla/5.0_(compatible;_vkShare;__http://vk.com/dev/Share) 20150930142547
Google_Analytics_Snippet_Validator 20150924120830
Opera/9.80_(Android;_Opera_Mini/9.0.1829/37.6522;_U;_ru)_Presto/2.12.423_Version/12.16 20150916142115
BitrixSM_CHTTP_class 20150904164419
END_UNKNOWNREFERER

# Unknown referer Browser - Last visit date
BEGIN_UNKNOWNREFERERBROWSER 3
\ 20150923101046
Google_Analytics_Snippet_Validator 20150924120830
BitrixSM_CHTTP_class 20150904164419
END_UNKNOWNREFERERBROWSER

# Origin - Pages - Hits 
BEGIN_ORIGIN 6
From0 392 691
From1 0 0
From2 254 291
From3 340 340
From4 4817 74614
From5 0 0
END_ORIGIN

# Search engine referers ID - Pages - Hits
BEGIN_SEREFERRALS 3
google 13 50
bing 2 2
yandex 239 239
END_SEREFERRALS

# External page referers - Pages - Hits
# The 10 first Pages must be first (order not required for others)
BEGIN_PAGEREFS 21
http://www.biglion.ru/deals/pikcherme-75/ 163 163
http://success-seo.com/try.php 57 57
http://www.kuponika.ru/out/6321583/ 36 36
http://vk.com/away.php 22 22
http://buttons-for-website.com 12 12
http://www.biglion.ru/r/moscow/deal/index.php 10 10
http://www.kupongid.ru/place/out/studiya_pechaty_pikcher/ 9 9
http://video--production.com 6 6
http://www.kuponika.ru/out/6321692/ 6 6
http://go.mail.ru/search 4 4
http://yandex.com.tr/clck/jsredir 1 1
http://go.mail.ru/msearch_app 1 1
http://crm.1pkk.ru/manager/partners/view/90889 3 3
http://justprofit.xyz 1 1
http://mydock.ru 1 1
http://code.directadvert.ru/click/ 2 2
http://beta.biglion.ru/deals/pikcherme-75/ 1 1
http://vk.com/club80445745 1 1
http://kaida-fish.ru/catalog/pikery/ 2 2
http://mds.wi-fi.ru/session 1 1
http://xn-----7kcbbgbk8byayibdwl9o6c.xn--p1ai 1 1
END_PAGEREFS

# Search keyphrases - Number of search
# The 10 first number of search must be first (order not required for others)
BEGIN_SEARCHWORDS 24
pikcher.me 8
%d1%84%d0%be%d1%82%d0%be+%d0%ba%d0%be%d0%bb%d0%bb%d0%b0%d0%b6%d0%b5%d0%b9+%d0%b8%d0%b7+%d1%84%d0%be%d1%82%d0%be%d0%b3%d1%80%d0%b0%d1%84%d0%b8%d0%b9+%d1%81%d0%b2%d0%be%d0%b8%d0%bc%d0%b8+%d1%80%d1%83%d0%ba%d0%b0%d0%bc%d0%b8+%d0%be%d0%bd%d0%bb%d0%b0%d0%b9%d0%bd 2
%d0%ba%d0%b0%d1%80%d1%82%d0%b8%d0%bd%d1%8b+%d0%bd%d0%b0+%d0%bf%d0%be%d0%bb%d0%be%d1%82%d0%bd%d0%b5+%d0%bf%d0%b8%d0%ba%d1%87%d0%b5%d1%80+%d0%bc%d0%b8 2
%d0%ba%d0%b0%d0%ba+%d1%81%d0%b4%d0%b5%d0%bb%d0%bb%d1%81%d1%82%d1%8c+%d0%ba%d0%b0%d1%80%d1%82%d0%b8%d0%bd%d1%83+%d0%bd%d0%b0+%d1%85%d0%be%d0%bb%d1%81%d1%82%d0%b5 1
%d0%ba%d1%82%d0%be+%d1%82%d0%b0%d0%ba%d0%be%d0%b9+%d0%bf%d0%b8%d0%ba%d1%87%d0%b5%d1%80 1
%d0%bf%d0%b5%d1%87%d0%b0%d1%82%d1%8c+%d1%85%d0%be%d0%bb%d1%81%d1%82+%d0%bd%d0%be%d0%b2%d0%be%d1%81%d0%b8%d0%b1%d0%b8%d1%80%d1%81%d0%ba 1
%d0%bd%d0%b0%d0%b4%d0%bf%d0%b8%d1%81%d0%b8+%d0%bd%d0%b0+%d1%85%d0%be%d0%bb%d1%81%d1%82%d0%b5+%d0%b4%d0%bb%d1%8f+%d0%bb%d1%8e%d0%b1%d0%b8%d0%bc%d0%be%d0%b3%d0%be 1
%d0%bf%d0%be%d1%80%d1%82%d1%80%d0%b5%d1%82+%d0%bd%d0%b0+%d1%85%d0%be%d0%bb%d1%81%d1%82%d0%b5+%d1%81+%d1%84%d0%be%d1%82%d0%be%d0%b3%d1%80%d0%b0%d1%84%d0%b8%d0%b8 1
%d0%bc%d0%be%d0%b6%d0%bd%d0%be+%d0%bf%d0%b5%d1%87%d0%b0%d1%82%d0%b0%d1%82%d1%8c+%d1%85%d0%be%d0%bb%d1%81%d1%82+%d0%b8%d0%b7+%d1%80%d1%83%d0%bb%d0%be%d0%bd%d0%b0+%d0%bd%d0%b0+%d0%bf%d1%80%d0%b8%d0%bd%d1%82%d0%b5%d1%80%d0%b5+%d1%84%d0%be%d1%80%d0%bc%d0%b0%d1%82%d0%b0+%d0%904 1
%d0%ba%d1%83%d0%bf%d0%b8%d1%82%d1%8c+%d0%ba%d0%b0%d1%80%d1%82%d0%b8%d0%bd%d1%8b+%d0%bd%d0%b0+%d1%85%d0%be%d0%bb%d1%81%d1%82%d0%b5+%d0%b2%d1%8b%d1%81%d0%be%d0%ba%d0%be%d0%b3%d0%be+%d1%80%d0%b0%d0%b7%d1%80%d0%b5%d1%88%d0%b5%d0%bd%d0%b8 1
%d0%ba%d0%b0%d1%80%d1%82%d0%b8%d0%bd%d1%8b+%d0%bd%d0%b0%d1%80%d0%b8%d1%81%d0%be%d0%b2%d0%b0%d1%82%d1%8c+%d1%81+%d1%88%d0%b8%d1%88%d0%ba%d0%b0%d0%bc%d0%b8 1
%d0%ba%d1%83%d0%bf%d0%b8%d1%82%d1%8c+%d0%ba%d0%be%d1%80%d0%bc%d1%83%d1%88%d0%ba%d1%83+%d0%b4%d0%bb%d1%8f+%d0%bf%d0%b8%d0%ba%d0%b5%d1%80%d0%b0 1
%d1%88%d0%b8%d0%bc%d0%b0%d0%bd%d0%be+%d0%bf%d0%b8%d0%ba%d0%b5%d1%80%d1%8b+%d0%ba%d1%83%d0%bf%d0%b8%d1%82%d1%8c 1
%d1%84%d0%be%d1%82%d0%be%d0%bc%d0%be%d0%bd%d1%82%d0%b0%d0%b6+%d1%84%d0%be%d1%82%d0%be%d0%b3%d1%80%d0%b0%d1%84%d0%b8%d0%b9+%d0%b4%d0%bb%d1%8f+%d0%bf%d0%b0%d1%80%d1%8b 1
%d1%84%d0%b8%d0%b4%d0%b5%d1%80%d0%bd%d1%8b%d0%b9+%d0%bf%d0%b8%d0%ba%d0%b5%d1%80 1
%d0%ba%d0%ba%d0%bf%d0%b8%d1%82%d1%8c+%d0%bf%d0%b8%d0%ba%d0%b5%d1%80+%d0%b2+%d0%bc%d0%be%d1%81%d0%ba%d0%b2%d0%b5+%d0%bd%d0%b5%d0%b4%d0%be%d1%80%d0%be%d0%b3%d0%be 1
%d0%bf%d0%b8%d0%ba%d0%b5%d1%80+2.1 1
%d0%9e%d0%9e%d0%9e+%d0%9f%d0%b8%d0%ba%d1%87%d0%b5%d1%80+%d0%98%d0%bd%d1%82%d0%b5%d1%80%d0%bd%d0%b5%d1%88%d0%bd%d0%bb 1
%d1%84%d0%be%d1%82%d0%be+%d0%ba%d0%be%d0%bb%d0%bb%d0%b0%d0%b6%d0%b5%d0%b9+%d0%b8%d0%b7+%d1%84%d0%be%d1%82%d0%be%d0%b3%d1%80%d0%b0%d1%84%d0%b8%d0%b9+%d0%be%d0%bd%d0%bb%d0%b0%d0%b9%d0%bd 1
%d1%84%d0%be%d1%82%d0%be+%d0%bf%d0%b8%d0%ba%d0%b5%d1%80%d0%b0 1
%d0%bf%d0%b8%d0%ba%d0%b5%d1%80+%d1%87%d1%82%d0%be+%d1%8d%d1%82%d0%be+%d1%82%d0%b0%d0%ba%d0%be%d0%b5 1
%d0%ba%d0%b0%d0%ba+%d1%81%d0%b4%d0%b5%d0%bb%d0%b0%d1%82%d1%8c+%d1%88%d0%b0%d1%80%d0%b6+%d0%b8%d0%b7+%d1%84%d0%be%d1%82%d0%be%d0%b3%d1%80%d0%b0%d1%84%d0%b8%d0%b8+%d0%be%d0%bd%d0%bb%d0%b0%d0%b9%d0%bd 1
%d0%b1%d1%8e%d0%b4%d0%b6%d0%b5%d1%82%d0%bd%d1%8b%d0%b5+%d0%bf%d0%b8%d0%ba%d0%b5%d1%80%d1%8b+%d0%ba%d1%83%d0%bf%d0%b8%d1%82%d1%8c 1
maximus+%d0%bf%d0%b8%d0%ba%d0%b5%d1%80 1
END_SEARCHWORDS

# Search keywords - Number of search
# The 10 first number of search must be first (order not required for others)
BEGIN_KEYWORDS 62
pikcher.me 8
%d0%bd%d0%b0 7
%d0%b8%d0%b7 5
%d0%bf%d0%b8%d0%ba%d0%b5%d1%80 5
%d1%85%d0%be%d0%bb%d1%81%d1%82%d0%b5 4
%d1%84%d0%be%d1%82%d0%be 4
%d0%be%d0%bd%d0%bb%d0%b0%d0%b9%d0%bd 4
%d0%ba%d0%b0%d1%80%d1%82%d0%b8%d0%bd%d1%8b 4
%d0%ba%d1%83%d0%bf%d0%b8%d1%82%d1%8c 4
%d1%84%d0%be%d1%82%d0%be%d0%b3%d1%80%d0%b0%d1%84%d0%b8%d0%b9 4
%d0%bc%d0%be%d1%81%d0%ba%d0%b2%d0%b5 1
%d0%bc%d0%b8 2
%d0%bf%d0%be%d0%bb%d0%be%d1%82%d0%bd%d0%b5 2
%d0%bf%d0%b0%d1%80%d1%8b 1
%d0%9e%d0%9e%d0%9e 1
%d0%98%d0%bd%d1%82%d0%b5%d1%80%d0%bd%d0%b5%d1%88%d0%bd%d0%bb 1
%d1%88%d0%b8%d1%88%d0%ba%d0%b0%d0%bc%d0%b8 1
%d0%bf%d0%be%d1%80%d1%82%d1%80%d0%b5%d1%82 1
%d0%bf%d0%b8%d0%ba%d1%87%d0%b5%d1%80 3
%d1%88%d0%b0%d1%80%d0%b6 1
%d1%87%d1%82%d0%be 1
%d0%bd%d0%b5%d0%b4%d0%be%d1%80%d0%be%d0%b3%d0%be 1
%d0%bc%d0%be%d0%b6%d0%bd%d0%be 1
%d1%84%d0%be%d1%82%d0%be%d0%b3%d1%80%d0%b0%d1%84%d0%b8%d0%b8 2
%d0%ba%d0%b0%d1%80%d1%82%d0%b8%d0%bd%d1%83 1
%d1%84%d0%b8%d0%b4%d0%b5%d1%80%d0%bd%d1%8b%d0%b9 1
%d1%84%d0%be%d1%80%d0%bc%d0%b0%d1%82%d0%b0 1
%d0%9f%d0%b8%d0%ba%d1%87%d0%b5%d1%80 1
%d0%bf%d0%b8%d0%ba%d0%b5%d1%80%d1%8b 2
%d1%81 2
%d0%b2 1
%d1%84%d0%be%d1%82%d0%be%d0%bc%d0%be%d0%bd%d1%82%d0%b0%d0%b6 1
%d0%904 1
%d1%80%d1%83%d0%bb%d0%be%d0%bd%d0%b0 1
%d0%bb%d1%8e%d0%b1%d0%b8%d0%bc%d0%be%d0%b3%d0%be 1
%d1%81%d0%b4%d0%b5%d0%bb%d0%bb%d1%81%d1%82%d1%8c 1
%d0%ba%d0%ba%d0%bf%d0%b8%d1%82%d1%8c 1
%d0%bd%d0%b0%d0%b4%d0%bf%d0%b8%d1%81%d0%b8 1
%d1%80%d1%83%d0%ba%d0%b0%d0%bc%d0%b8 2
%d0%b1%d1%8e%d0%b4%d0%b6%d0%b5%d1%82%d0%bd%d1%8b%d0%b5 1
2.1 1
%d1%81%d0%b2%d0%be%d0%b8%d0%bc%d0%b8 2
%d1%8d%d1%82%d0%be 1
%d1%88%d0%b8%d0%bc%d0%b0%d0%bd%d0%be 1
%d0%b2%d1%8b%d1%81%d0%be%d0%ba%d0%be%d0%b3%d0%be 1
%d1%82%d0%b0%d0%ba%d0%be%d0%b9 1
%d0%bd%d0%be%d0%b2%d0%be%d1%81%d0%b8%d0%b1%d0%b8%d1%80%d1%81%d0%ba 1
%d0%ba%d1%82%d0%be 1
%d0%ba%d0%be%d1%80%d0%bc%d1%83%d1%88%d0%ba%d1%83 1
%d0%bf%d0%b5%d1%87%d0%b0%d1%82%d0%b0%d1%82%d1%8c 1
%d1%80%d0%b0%d0%b7%d1%80%d0%b5%d1%88%d0%b5%d0%bd%d0%b8 1
%d0%bf%d1%80%d0%b8%d0%bd%d1%82%d0%b5%d1%80%d0%b5 1
%d1%85%d0%be%d0%bb%d1%81%d1%82 2
%d1%82%d0%b0%d0%ba%d0%be%d0%b5 1
%d0%b4%d0%bb%d1%8f 3
%d0%ba%d0%be%d0%bb%d0%bb%d0%b0%d0%b6%d0%b5%d0%b9 3
%d0%bd%d0%b0%d1%80%d0%b8%d1%81%d0%be%d0%b2%d0%b0%d1%82%d1%8c 1
%d0%bf%d0%b8%d0%ba%d0%b5%d1%80%d0%b0 2
%d0%ba%d0%b0%d0%ba 2
maximus 1
%d1%81%d0%b4%d0%b5%d0%bb%d0%b0%d1%82%d1%8c 1
%d0%bf%d0%b5%d1%87%d0%b0%d1%82%d1%8c 1
END_KEYWORDS

# Errors - Hits - Bandwidth
BEGIN_ERRORS 5
302 29 22832
503 5 2840
206 140 17108376
404 373 201319
301 448 267764
END_ERRORS

# URL with 404 errors - Hits - Last URL referer
BEGIN_SIDER_404 16
/apple-touch-icon-precomposed.png 6 -
/robots.txt 321 -
/apple-touch-icon.png 20 -
/upload/iblock/267/267fdd8d44e303651166d0c8f561b605.jpg 1 http://yandex.ru/clck/jsredir
/apple-touch-icon-120x120.png 5 -
/bx_fmt.php 1 -
/apple-touch-icon-152x152.png 2 -
/upload/iblock/e4f/e4f5226dba678797a591aae58387ff8c.jpg 2 http://yandex.ru/clck/jsredir
/bitrix/bx_fmt.php 1 -
/apple-touch-icon-120x120-precomposed.png 5 -
/apple-touch-icon-152x152-precomposed.png 2 -
/javascript:void(0) 1 -
/browserconfig.xml 2 -
/mobile/review/ 2 -
/bitrix.info/ba.js 1 -
/apple-app-site-association 1 -
END_SIDER_404

# Host - Pages - Hits - Bandwidth - Last visit date - [Start date of last visit] - [Last page of last visit]
# [Start date of last visit] and [Last page of last visit] are saved only if session is not finished
# The 10 first Hits must be first (order not required for others)
BEGIN_VISITOR 850
77.50.243.139 660 2942 118604299 20150926001352
217.173.65.6 69 922 69902057 20150922111534
195.3.141.230 69 859 63119805 20150924160646
80.95.38.236 62 460 33911952 20150919201018
46.159.166.189 52 291 17859475 20150922201916
64.74.215.94 51 192 3587649 20150923101046
195.19.210.29 50 879 27550853 20150916104143
78.107.253.80 49 434 31646877 20150930140919
217.74.44.90 46 493 37751826 20150928112137
109.60.148.247 43 671 52629551 20150930162851
91.237.221.133 15 305 25472818 20150918050551
179.156.238.129 1 46 2391374 20150917011123
195.191.79.254 0 1 85100 
2.92.140.104 9 23 622107 20150912002919
178.70.60.73 0 1 37436 
128.69.109.68 0 1 44420 
37.49.204.57 0 1 44420 
91.78.92.196 20 369 26300444 20150903141254
175.137.168.85 7 70 3353260 20150929085908
178.72.69.12 0 2 78211 
93.157.168.19 14 169 12674174 20150917182641
193.150.92.206 12 246 19754972 20150920023753
77.232.15.208 31 210 16367624 20150919164433
90.143.6.112 0 1 85400 
217.69.133.169 2 2 30287 20150921143109
109.124.214.213 0 1 33791 
192.92.196.107 0 1 11752 
95.165.43.195 23 247 23096475 20150918093626
177.73.120.165 3 50 1186915 20150906171731
85.192.188.115 0 1 219334 
95.128.242.176 17 148 9125045 20150922015443
78.107.9.2 9 187 16053325 20150915095126
83.220.239.243 4 4 60273 20150908135658
82.145.221.26 1 69 5253535 20150916142113
178.204.214.254 9 121 9003623 20150901172100
37.144.241.174 10 188 16082025 20150915152808
213.193.11.236 1 111 8664583 20150920074613
213.171.44.134 10 190 16082853 20150916125252
93.185.21.224 0 1 59385 
192.92.196.157 0 1 11752 
109.173.27.12 9 121 9003620 20150912132516
77.245.212.185 0 1 33791 
87.244.36.194 19 204 16216793 20150924154611
66.102.9.97 2 2 21766 20150925114750
95.27.1.235 3 113 8694292 20150906200756
109.188.127.24 3 3 45670 20150919143210
66.249.82.185 0 2 389052 
176.193.142.11 10 232 19698600 20150920210026
188.162.132.104 9 123 9004675 20150910180118
185.34.245.145 0 1 44420 
83.149.9.162 12 234 20847846 20150912145508
192.92.196.209 0 1 11752 
77.37.220.138 1 111 8664584 20150922070022
188.232.132.33 0 1 4037 
192.92.196.120 0 1 17902 
178.170.252.114 9 121 9003602 20150902212815
128.204.33.170 10 195 16720058 20150930111248
109.188.124.21 0 1 243430 
217.14.200.56 0 1 51385 
78.36.39.33 10 143 10379873 20150917153848
83.220.238.161 8 120 8988620 20150913052908
77.108.214.51 5 68 4421798 20150921131304
80.243.8.242 21 247 18053360 20150914143122
212.44.150.36 0 1 13932 
85.140.2.170 0 2 78210 
77.232.15.178 35 510 44177146 20150928140201
217.118.78.87 0 1 44420 
93.80.248.227 0 1 44420 
66.249.91.226 2 2 30180 20150914203454
192.92.196.198 0 1 1765 
46.73.140.38 9 23 622107 20150907223839
66.249.88.218 2 45 3518752 20150912083634
46.73.205.165 3 86 6010473 20150915225047
5.227.7.98 0 1 44420 
190.34.213.11 3 31 739889 20150908232504
192.92.196.161 0 1 788 
176.120.214.39 0 1 44420 
109.252.20.181 9 187 16067687 20150919011648
95.188.206.58 0 1 243430 
192.92.196.229 0 1 6662 
188.18.74.229 0 2 78211 
185.46.155.94 9 122 9004839 20150917175440
46.188.81.177 24 52 3084798 20150919221351
78.155.186.74 1 34 2286101 20150928093646
2.61.9.220 0 1 33791 
46.29.79.125 0 1 44420 
195.78.126.66 0 1 44420 
37.204.197.177 10 188 16082904 20150916183021
195.238.108.3 10 123 9014258 20150929154330
178.154.243.106 0 1 39001 
95.72.104.246 15 254 19781480 20150914000629
217.118.83.215 0 2 78211 
176.59.74.230 1 21 201064 20150921092933
83.234.207.33 0 1 110580 
109.167.205.26 1 1 6234 20150904185536
176.215.253.236 0 1 44420 
91.78.44.240 43 560 44876089 20150930115300
78.107.233.42 9 121 9004283 20150921022322
192.92.196.180 0 1 2929 
162.209.102.100 1 1 73590 20150913171214
77.51.47.187 0 1 243430 
192.92.196.186 0 1 1765 
192.92.196.34 0 1 658 
83.220.238.62 0 1 85100 
194.58.115.120 2 2 147052 20150910154632
80.83.237.3 5 123 9631903 20150928141340
87.240.182.177 1 1 15038 20150912210441
95.26.131.202 7 21 592398 20150918034222
88.200.197.130 0 2 78211 
88.200.137.188 0 1 37658 
178.204.172.21 7 69 5083443 20150902132049
77.50.97.38 35 484 40110063 20150930000132
91.109.138.6 0 1 44420 
5.18.140.227 0 1 243430 
178.57.115.189 9 121 9003620 20150907101646
213.149.14.8 15 301 24139743 20150906185543
213.87.145.149 13 175 12032206 20150916113910
62.105.144.46 15 205 17344915 20150915095035
79.173.65.56 8 120 8989299 20150926183056
82.151.206.177 9 121 9003620 20150911143138
185.15.189.53 12 193 16113418 20150909145946
188.32.53.124 12 26 1542023 20150912233932
77.50.236.57 12 124 9049955 20150918090431
217.69.132.99 9 23 501072 20150912073021
212.46.218.252 39 506 39945913 20150917114459
148.251.1.229 1 1 73535 20150912142626
177.5.126.107 1 14 210892 20150919182640
37.110.158.32 1 111 8664362 20150911090002
38.127.197.68 1 1 74235 20150928225117
188.32.246.161 1 111 8664362 20150914233616
95.108.158.251 0 1 31896 
192.92.196.191 1 1 6231 20150909093342
83.219.138.194 13 167 12723828 20150906213544
188.186.132.239 32 341 38282653 20150902141615
95.108.236.169 3 94 7720965 20150904161014
188.123.231.124 8 120 8988618 20150912181056
77.37.132.180 16 198 16174250 20150922104907
176.215.56.162 0 1 266539 
37.144.133.123 31 223 16381581 20150914224345
178.252.208.228 1 1 15273 20150920042340
91.240.13.41 0 1 44420 
85.115.224.145 3 3 66389 20150929085453
81.222.251.198 7 82 5224420 20150922123816
77.243.99.4 0 1 37658 
179.236.242.74 1 15 131104 20150908051746
213.33.171.35 8 156 12602994 20150922153017
176.15.185.26 19 257 19833554 20150930232839
92.242.52.66 35 451 36648130 20150917110201
109.63.236.107 9 229 18758988 20150912165536
85.233.69.187 0 1 243430 
95.28.252.245 8 186 16052607 20150923214211
95.28.253.127 9 188 16068020 20150920145105
95.26.238.176 15 194 16155200 20150927234357
192.92.196.68 0 1 8461 
85.31.124.200 11 234 19713067 20150914140859
93.95.156.251 0 1 243430 
178.47.182.173 0 1 33791 
109.206.188.71 1 1 15221 20150922130943
192.92.196.135 0 1 788 
77.108.210.47 9 121 9004283 20150921225401
192.92.196.168 0 1 2929 
192.92.196.206 1 2 21404 20150928005430
92.100.36.206 0 1 33791 
176.104.43.141 0 1 85100 
5.255.253.5 0 1 20829 
77.29.193.172 1 15 211691 20150930112225
46.39.244.99 10 66 729092 20150905100157
141.8.189.208 15 184 12725600 20150927164009
46.118.155.146 1 2 163835 20150930025218
5.18.186.18 14 235 19740365 20150904215530
195.151.213.245 10 122 8802600 20150914122155
179.192.252.100 1 42 1265499 20150908194237
179.223.251.222 7 108 6686218 20150911185105
95.26.204.240 20 199 16200186 20150921135602
89.250.13.105 11 232 19705434 20150914161714
190.59.29.109 1 15 173448 20150914042042
93.80.212.187 10 189 16082360 20150912142039
195.144.244.10 9 121 9003902 20150917134751
81.5.81.50 23 378 29886988 20150917002449
83.237.4.249 15 254 19857271 20150918111915
212.34.59.34 9 121 9004643 20150925121025
78.155.187.210 22 369 26794594 20150917230056
178.154.243.105 1 1 15431 20150927220510
95.28.168.148 10 191 16083415 20150915150210
89.109.176.148 0 1 33791 
93.174.226.133 16 236 19762989 20150926134043
37.145.87.7 9 23 622770 20150918034235
213.87.146.25 0 2 78211 
89.178.65.253 3 113 8694955 20150918204525
89.169.71.50 0 2 130538 
94.180.152.244 12 26 1542023 20150905232309
94.231.162.213 9 187 16067687 20150921224922
177.13.33.4 3 46 1771656 20150925164216
141.135.58.213 1 10 75632 20150903145856
85.235.187.166 11 167 12643929 20150918144712
186.153.147.122 3 23 304663 20150908052714
176.14.44.100 0 1 33791 
188.75.200.141 0 1 44420 
186.120.195.16 3 30 562430 20150918203805
178.137.82.123 1 1 73886 20150922000525
86.57.171.132 0 1 243430 
93.174.116.105 11 189 16093089 20150920083230
192.92.196.185 0 1 8461 
89.178.66.251 1 50 987287 20150920074621
109.61.137.94 0 1 44420 
82.199.97.142 37 496 39091133 20150916144944
176.77.2.25 3 113 8694955 20150918060617
195.238.110.214 22 247 9103342 20150911172919
109.252.53.88 17 251 19823632 20150912152719
78.81.16.198 0 3 184016 
192.92.196.150 0 1 12104 
91.144.173.20 0 1 243430 
46.138.71.82 10 192 16168473 20150912225625
81.163.27.130 0 1 31446 
83.220.51.232 31 262 19978331 20150917090211
194.186.207.107 21 392 19893900 20150925143935
193.92.193.147 9 119 9078556 20150916173941
179.178.32.60 7 77 3902885 20150920005220
178.234.188.178 0 1 243430 
193.219.124.34 0 1 243430 
176.195.212.184 3 113 8694955 20150917200244
188.162.132.24 9 115 8847328 20150911113013
192.92.196.74 0 1 8461 
178.72.94.231 0 1 51385 
62.182.48.183 13 191 16128580 20150918085932
82.145.222.190 1 122 9435140 20150910221906
109.173.20.29 1 111 8664703 20150925190504
46.252.162.3 0 1 44420 
187.25.151.125 3 30 555425 20150912142653
91.124.38.131 7 106 6456699 20150909203607
213.87.144.209 9 165 12612844 20150914132851
212.100.137.162 0 1 44420 
93.170.190.90 9 122 9004176 20150911143230
91.194.190.190 8 163 12949509 20150922084913
37.204.120.16 3 113 8694292 20150914065359
5.18.144.170 9 121 9003620 20150910150658
46.173.1.51 9 121 9003620 20150902212028
31.134.121.129 0 1 44420 
78.25.120.41 0 1 44420 
217.118.93.151 4 4 60103 20150903230448
77.41.158.3 7 120 8974172 20150911151525
177.195.102.254 1 44 2069201 20150906171147
192.92.196.65 1 1 7125 20150930215330
5.76.71.42 0 1 45438 
85.140.3.208 0 1 92834 
77.232.152.116 0 1 92834 
46.188.125.198 14 450 34988209 20150920235141
189.18.217.100 1 1 15090 20150913054152
192.92.196.237 0 2 9646 
192.92.196.230 0 1 658 
46.188.98.191 2 112 8679327 20150908143936
81.18.133.210 7 119 8260485 20150912152428
77.41.56.159 10 189 18939362 20150920140609
66.249.81.228 8 100 17542046 20150924084924
176.14.179.174 9 23 623130 20150925193146
193.93.13.178 20 20 1031054 20150903005200
213.87.154.216 8 120 8989302 20150929094952
37.204.220.253 11 230 19704396 20150914095933
37.212.133.215 0 1 122217 
5.34.39.61 0 2 103109 
82.199.103.22 13 125 9054772 20150916094132
5.165.44.21 0 1 44420 
46.39.35.197 41 626 45889728 20150916095225
213.24.127.163 0 1 243430 
93.123.147.100 10 188 16082025 20150912174745
31.48.144.147 0 1 86533 
95.84.240.127 0 1 33791 
46.188.124.163 10 188 16082904 20150919203019
37.190.52.128 9 187 16067023 20150913010605
213.87.123.27 0 2 78211 
95.221.207.217 1 111 8664362 20150912175141
192.92.196.160 0 1 1445 
66.102.9.70 3 3 28277 20150925115508
192.92.196.193 0 1 14279 
192.92.196.113 0 1 1765 
83.220.239.114 1 1 6883 20150903091123
178.154.243.104 0 2 71457 
213.87.120.2 28 386 29918587 20150923172841
95.27.24.119 14 28 1688873 20150916035054
109.188.125.21 9 103 46123 20150923150630
189.73.178.122 1 15 132556 20150901025704
177.13.60.17 1 8 52915 20150929140125
41.105.223.209 1 15 166648 20150905192259
193.34.160.51 0 1 44420 
5.61.10.234 10 188 16076305 20150915093159
66.249.88.208 3 38 4724162 20150912083634
66.249.81.231 9 87 19656029 20150924084955
95.220.200.90 14 255 20184171 20150924002716
212.176.31.148 10 188 16083288 20150924105652
188.126.52.188 11 245 16659789 20150912214615
85.173.144.65 9 165 13701884 20150902215920
93.171.135.142 9 121 9003620 20150909184503
31.204.163.59 0 2 78210 
191.182.116.247 7 83 5921083 20150911055206
66.249.91.218 1 1 15090 20150913164625
176.195.81.177 12 26 1542071 20150908080934
37.200.122.179 15 237 22014692 20150921190000
91.246.96.61 10 189 16083245 20150917142527
62.192.248.155 10 188 16083294 20150925184212
79.165.254.81 11 232 19705544 20150905133345
195.39.211.241 0 1 37658 
193.151.15.7 0 1 69153 
201.191.46.51 7 117 8123331 20150922194832
176.59.1.173 1 1 6147 20150904183137
178.57.99.215 0 1 44420 
49.148.198.162 5 46 2661406 20150916041639
189.35.188.200 1 8 52574 20150913223711
77.108.75.50 26 222 18156716 20150928161334
208.90.57.196 2 2 148486 20150922153242
31.173.240.93 8 78 4583350 20150901185935
87.240.182.129 1 2 53982 20150914181928
195.191.109.191 0 1 37658 
89.249.129.200 23 242 19884426 20150906185146
89.249.252.139 16 270 18623853 20150916140328
87.228.109.240 1 111 8664703 20150927054334
83.139.147.58 0 1 33791 
211.30.141.39 7 71 3375573 20150910135519
89.188.124.80 9 122 9004175 20150911133341
37.190.56.114 2 3 2881946 20150925214607
176.9.30.3 4 4 59784 20150914052729
85.140.0.16 0 1 243430 
104.45.18.178 2 2 147180 20150911140723
192.92.196.93 0 1 11752 
81.25.53.146 7 119 8973838 20150919113313
94.180.143.139 9 121 9004283 20150919091720
85.15.84.56 0 1 31446 
189.10.153.152 3 48 2026136 20150926050243
176.9.63.88 1 1 73535 20150912142612
54.193.239.99 1 15 211349 20150912142719
46.73.172.134 16 249 19890430 20150914222920
194.154.66.194 9 187 16067950 20150928103128
46.149.84.186 14 238 17947418 20150922124124
195.245.206.67 0 1 44420 
178.213.248.91 7 105 6218612 20150915173519
89.237.21.241 0 1 44420 
84.51.119.78 10 122 9018622 20150912002549
176.209.200.132 0 1 37658 
83.220.238.91 25 445 35956739 20150902203240
95.78.161.141 7 45 1705273 20150914095539
223.223.130.213 0 1 243430 
217.175.135.30 23 371 25178806 20150925095448
95.108.189.105 15 260 19154610 20150904161014
82.138.61.157 10 189 16082580 20150914134642
128.70.5.143 0 1 51385 
2.132.234.37 0 1 33791 
192.92.196.35 0 1 1445 
31.173.84.121 10 168 12700301 20150930142930
41.99.85.38 7 57 1857490 20150918181756
188.133.255.204 0 1 44420 
78.25.150.235 0 1 44420 
94.180.224.31 9 23 622107 20150906212942
185.3.34.31 0 2 78211 
85.115.33.180 29 240 16939950 20150924121658
188.32.220.162 8 120 8989300 20150930180211
83.69.207.170 13 194 17221851 20150914130738
80.123.29.233 1 15 211691 20150925130856
89.142.122.223 3 41 735217 20150920202004
109.63.239.152 0 1 44420 
189.27.95.233 1 8 52574 20150902144327
213.230.76.211 1 1 15431 20150924220319
87.240.182.142 1 1 15374 20150930142547
77.37.236.72 13 235 19739231 20150916215326
91.222.115.243 9 121 9003620 20150910091453
216.163.188.229 1 1 73966 20150918203913
178.45.149.237 10 213 9018623 20150911140711
37.144.30.21 3 65 6050855 20150903153634
217.118.93.175 4 4 60103 20150902001554
192.92.196.12 0 1 17902 
195.208.49.60 0 1 103669 
192.92.196.8 0 2 15464 
176.28.64.142 0 1 33791 
46.39.49.226 16 202 13293598 20150911164159
201.35.89.180 3 36 884646 20150923191432
216.163.188.240 1 1 73966 20150921093127
78.24.28.189 24 448 35264445 20150925190520
78.155.185.4 1 1 10334 20150923102201
85.236.30.196 10 188 16083292 20150924142431
31.23.105.133 0 1 243430 
95.220.22.240 18 224 15246077 20150911221125
131.161.243.188 1 15 152872 20150907035919
176.59.7.197 2 2 16242 20150904153651
194.186.84.18 0 1 33791 
195.189.120.21 7 95 6122065 20150919080718
31.173.241.70 17 236 19789359 20150913105549
5.18.71.106 0 1 33791 
187.37.180.19 9 119 9078916 20150927033105
5.167.69.179 0 1 44420 
95.72.33.246 8 188 16053437 20150926104212
200.180.10.66 3 48 1492807 20150929154541
192.92.196.54 1 1 7125 20150930081531
95.28.133.154 8 120 8988616 20150912191633
192.92.196.102 0 1 6662 
66.249.88.30 1 1 15431 20150924120830
79.143.14.178 9 189 16067850 20150912094333
94.141.162.60 12 193 24682966 20150927142536
178.120.35.112 0 1 33791 
176.14.211.225 9 23 622770 20150917121244
81.30.195.94 0 1 44420 
95.253.67.198 7 117 9048110 20150921061442
82.198.179.174 10 199 16275578 20150915124802
95.26.125.84 9 121 9004283 20150920002505
37.204.95.203 11 191 16332561 20150908221155
95.153.129.67 0 1 33791 
212.100.152.124 10 165 12621808 20150924153558
176.15.114.37 3 113 8694292 20150901110634
176.119.127.52 0 1 14077 
95.152.3.15 6 38 860852 20150921145333
185.100.218.34 1 15 211691 20150923181044
192.92.196.76 0 1 2531 
200.131.199.17 7 107 6251551 20150916135315
93.153.203.46 0 1 33791 
195.16.111.114 6 68 4438406 20150929174709
192.92.196.83 0 1 114251 
179.223.2.48 7 82 5822349 20150915164210
192.92.196.47 0 1 1445 
95.28.156.51 3 87 5696985 20150914065357
87.255.2.235 22 328 25241017 20150915233033
90.154.94.14 28 297 21713936 20150928153832
185.79.102.38 9 186 15216400 20150914085852
217.118.93.141 3 3 45101 20150903164546
95.108.158.253 0 1 1677 
217.72.153.2 20 420 35752106 20150925111254
188.32.23.62 3 113 8694292 20150902043254
95.172.37.220 0 1 44420 
54.212.29.240 1 1 73592 20150912142710
189.106.244.116 7 117 9048110 20150921193900
192.92.196.88 0 1 17902 
195.239.87.94 7 119 8973616 20150914190419
62.205.136.167 13 191 16127031 20150907143055
176.194.152.131 0 2 78210 
185.79.102.67 5 67 5165089 20150917083216
176.14.130.9 9 23 622107 20150901220847
109.187.107.105 16 180 14400208 20150905091127
5.167.134.169 0 1 44420 
79.165.160.180 21 411 35236842 20150926181757
195.16.110.149 21 262 23773596 20150925134207
144.76.114.113 1 1 73535 20150912142630
172.56.4.24 9 119 9077893 20150905182624
192.92.196.171 0 2 23856 
80.90.227.46 0 1 266539 
84.253.125.35 10 124 9005996 20150923132840
109.62.223.211 0 1 33791 
195.16.111.20 9 187 16067951 20150927185655
46.188.29.153 3 113 8694292 20150914065359
192.92.196.232 0 1 2531 
192.92.196.25 0 1 2531 
188.42.240.119 5 15 603236 20150913131409
37.58.38.244 0 1 169671 
31.135.124.253 0 1 44420 
46.53.203.11 1 1 15374 20150928154725
161.69.31.20 2 2 147108 20150912142716
88.150.238.242 2 12 890111 20150930234400
185.26.52.37 0 1 59385 
89.142.130.36 1 8 52574 20150901160157
192.92.196.202 0 1 1765 
37.190.56.66 5 39 5484461 20150926120335
178.72.68.88 0 1 44420 
31.44.87.130 9 121 9004731 20150924182836
2.92.158.213 9 23 622107 20150914235020
213.85.255.155 10 191 16084295 20150917143303
86.110.4.174 5 122 9546480 20150922121627
192.92.196.111 0 1 12104 
186.231.119.172 7 86 5457090 20150917031327
192.92.196.131 0 1 781 
176.193.149.186 8 188 16053441 20150924231311
176.14.255.62 0 1 37658 
192.92.196.226 0 2 18766 
46.47.203.82 9 122 9081214 20150914144702
85.97.38.22 7 119 8973616 20150908224011
89.178.180.148 1 111 8664362 20150915033031
31.173.80.186 0 1 12139 
212.46.218.245 3 3 45594 20150917221753
62.76.150.249 1 19 225647 20150916132501
201.19.208.177 1 15 172604 20150912224619
192.92.196.165 0 1 1765 
185.68.155.33 10 190 16084122 20150925124901
192.92.196.155 0 1 788 
176.111.79.244 9 121 9004643 20150926233904
92.43.188.120 10 124 12251548 20150921182227
176.15.66.55 14 233 19751156 20150920111519
95.52.124.99 10 122 9018710 20150907005452
178.204.65.247 4 4 60103 20150903174510
77.51.175.173 7 119 8973616 20150915151031
187.115.94.84 3 32 551693 20150918140137
91.208.232.63 10 189 16160882 20150928140129
128.69.180.91 3 113 8694292 20150916093530
192.92.196.144 0 1 2531 
188.187.179.217 0 2 624314 
83.69.205.2 20 371 30971768 20150917112820
79.174.39.141 12 234 19130970 20150922124352
176.193.240.232 3 71 3576534 20150904185030
46.4.113.252 3 3 45398 20150920150023
95.108.158.133 1 1 10300 20150919103455
91.144.143.104 0 1 45438 
185.12.124.97 1 1 286 20150901132342
37.140.141.37 0 1 31896 
217.118.93.191 6 6 90102 20150903131514
176.51.188.136 0 1 87771 
212.34.50.154 24 262 19999993 20150921152740
95.81.194.248 0 1 33791 
88.205.242.111 0 1 266501 
178.140.115.8 3 113 8694292 20150910220946
82.145.208.131 0 1 44363 
128.68.194.11 12 12 181067 20150919201531
89.109.237.115 0 1 69153 
46.39.231.123 31 785 70024080 20150930225618
149.255.15.10 3 27 357631 20150919164308
179.110.249.51 1 15 141609 20150930124106
195.161.34.50 18 244 18008295 20150914185124
187.15.118.17 7 66 2521070 20150904195832
94.28.157.140 0 1 44420 
192.92.196.67 0 1 14279 
213.138.89.93 7 119 8122893 20150904182733
62.183.85.214 0 2 78210 
216.163.188.232 1 1 73590 20150913181404
77.108.112.180 10 193 16156096 20150923130717
66.102.9.30 4 136 27906753 20150913165312
83.220.238.41 11 168 12635409 20150914193024
95.83.128.202 9 122 9004176 20150912044642
212.74.198.93 0 1 243430 
46.188.91.110 3 113 8694955 20150916205111
89.178.60.82 3 113 8694292 20150911203733
194.28.58.243 0 2 67582 
80.73.72.66 0 1 111802 
79.247.122.115 2 2 147020 20150912142154
83.220.239.242 6 174 13499028 20150921095917
176.193.127.47 3 113 8694228 20150902060943
62.176.26.189 11 180 12765147 20150915090830
62.33.1.18 1 1 15033 20150901083621
37.203.31.80 0 1 44420 
31.44.89.69 10 188 16082025 20150912151531
95.220.178.52 39 352 21543399 20150922184059
66.102.9.52 9 114 26032625 20150913165316
95.31.37.97 0 1 44420 
195.144.192.38 0 1 243430 
83.220.236.73 5 123 9577951 20150930120900
176.195.184.234 3 111 8672775 20150914062247
192.92.196.22 0 1 6662 
46.39.67.73 16 134 9182334 20150913001332
83.149.8.178 16 194 16172075 20150914115519
192.92.196.85 0 1 114251 
5.166.68.30 0 1 33791 
217.69.132.55 3 17 297817 20150928212557
192.92.196.217 0 2 19347 
192.92.196.79 0 1 6662 
5.165.249.19 1 111 8664362 20150909174939
5.228.183.113 11 231 19704951 20150912163008
192.92.196.189 0 1 114251 
212.74.198.75 0 1 33791 
176.14.147.217 14 234 19751709 20150918233155
213.128.193.170 0 1 44420 
195.88.209.218 2 2 147818 20150920131536
179.216.87.166 7 90 5977735 20150919193717
94.180.197.55 22 61 1716689 20150904233650
5.18.176.90 0 1 33791 
188.32.191.251 3 113 8695315 20150929061515
187.64.180.90 7 109 6302359 20150904190503
188.187.192.99 0 1 69153 
177.33.177.126 7 106 6472146 20150918160806
89.28.162.7 0 1 44420 
95.220.167.213 10 188 16083042 20150919124600
195.239.189.254 21 246 18052896 20150910110148
192.92.196.124 0 1 114251 
87.228.66.245 11 25 1498408 20150923050854
189.111.5.158 3 35 895157 20150918051126
178.76.219.253 11 191 16094333 20150922163420
188.124.224.31 9 195 14449816 20150913223708
176.14.254.66 3 113 8694292 20150911230457
176.49.71.32 0 1 44420 
192.92.196.10 0 1 8461 
176.14.197.170 7 21 592177 20150916010616
189.41.217.40 1 27 414456 20150923182729
2.92.84.90 0 1 44420 
83.220.239.151 5 122 9546504 20150925085003
188.234.2.60 0 1 166505 
85.115.224.136 1 11 825417 20150907171217
87.117.16.173 3 87 2922870 20150916140720
62.133.162.240 0 1 33791 
37.212.159.129 0 1 243430 
176.52.61.79 0 1 31446 
23.101.61.176 1 1 73590 20150911135501
192.92.196.238 0 1 1185 
192.92.196.99 0 1 114251 
89.222.164.31 24 286 25500799 20150921170447
188.35.16.54 0 1 33791 
88.200.136.247 0 1 44420 
95.24.205.68 3 113 8694292 20150907220957
188.124.39.26 16 252 19811095 20150912144532
46.138.191.42 10 188 16077069 20150913003939
91.142.164.82 0 1 59385 
178.92.196.241 0 1 33791 
37.194.57.49 10 167 12630216 20150906184523
31.181.24.64 11 11 153404 20150922203529
89.255.92.195 10 190 16084129 20150925103341
195.54.42.129 1 1 15090 20150904134905
89.189.76.200 3 29 399678 20150913171215
178.129.165.248 10 189 16083464 20150920203109
46.73.181.14 9 23 622107 20150913225524
176.212.173.198 0 1 33791 
109.197.142.108 0 1 5459 
83.220.237.111 11 218 11249996 20150907230301
46.242.94.14 1 85 5669419 20150920074613
81.30.116.108 0 1 44420 
5.141.239.103 0 1 33791 
87.16.169.200 1 43 1690508 20150919123807
62.213.33.230 0 1 44420 
89.109.239.53 24 246 19881052 20150928120629
185.79.102.57 9 134 9865790 20150917085311
213.88.48.2 0 1 69115 
109.188.124.132 9 121 45763 20150917135505
109.187.216.76 0 1 44420 
178.49.161.198 0 1 44420 
109.188.124.33 18 235 16881091 20150915140852
95.78.251.6 0 1 44420 
91.233.243.220 15 133 9096511 20150919131018
95.153.128.89 1 61 4287111 20150906131331
92.46.21.171 0 1 51385 
89.22.57.49 29 209 16424817 20150912151120
92.27.168.175 1 45 2652884 20150902152542
190.152.89.154 1 15 207120 20150904162734
46.73.237.247 1 2 2871676 20150919155203
81.20.172.74 0 2 78210 
213.87.146.78 1 1 13980 20150913154103
62.141.103.251 9 121 9865362 20150903110301
80.237.68.120 11 191 16170135 20150914203850
95.26.112.186 9 23 622107 20150902232506
89.109.7.227 0 1 44420 
95.128.242.174 36 263 9329142 20150930151957
82.145.208.194 0 1 44363 
178.46.235.90 0 2 225890 
46.188.91.134 8 120 8988618 20150903151947
5.18.43.29 9 121 9003620 20150902222144
85.233.69.186 0 2 375030 
177.223.12.14 1 1 15090 20150910084708
24.225.8.5 1 1 73554 20150912142642
95.37.9.152 0 1 46604 
188.32.188.56 3 113 8694955 20150920212209
186.208.75.106 3 45 1847664 20150927201254
188.255.20.84 8 121 8989173 20150902200056
195.189.120.32 9 121 9004699 20150930102220
46.39.54.5 8 188 16052854 20150915210259
128.70.98.125 0 2 78211 
195.16.111.7 6 168 13649223 20150927161022
217.150.48.173 0 1 44420 
109.95.74.201 10 166 12628702 20150920014732
109.188.127.29 2 2 30884 20150926224725
212.118.46.210 10 167 12635996 20150921153242
95.163.107.73 2 2 30748 20150929185836
92.100.214.92 9 121 9003620 20150915195048
178.208.128.19 13 206 16532425 20150912145312
83.237.204.83 12 61 3989940 20150901202701
46.73.210.252 0 1 44420 
179.156.221.92 7 56 1856380 20150925190705
31.132.225.32 0 1 44420 
46.227.2.98 1 29 520761 20150930133805
95.84.140.12 10 188 16083294 20150922145232
189.30.225.248 3 29 422858 20150925025311
109.252.38.123 10 186 15119013 20150929153606
213.85.255.195 25 221 16408972 20150929130725
46.39.55.175 15 249 19953998 20150916045511
201.19.225.110 3 32 640627 20150923172108
95.24.35.211 9 23 619542 20150918034234
217.118.95.83 0 1 243430 
54.212.101.79 12 45 2722329 20150912142704
109.161.1.103 0 1 33791 
95.28.8.165 4 229 18123320 20150929061517
192.92.196.30 0 1 1445 
66.249.88.213 2 36 1475453 20150912083634
192.92.196.151 1 2 20510 20150907160104
188.32.254.164 3 113 8694228 20150902160208
109.188.125.10 7 119 8835745 20150909193633
192.92.196.69 0 1 114251 
149.154.69.241 2 2 147818 20150918151523
194.247.17.247 0 1 44420 
178.184.152.234 7 119 9049750 20150905164816
168.63.200.167 13 113 8913712 20150906131626
46.191.194.2 0 1 44420 
192.92.196.100 0 1 1445 
192.92.196.78 0 1 781 
83.149.35.207 0 1 44420 
201.0.29.147 7 68 2300045 20150925223229
188.162.40.13 0 1 33791 
128.71.198.129 0 1 314325 
178.208.254.202 0 1 178404 
85.115.224.144 12 190 16106985 20150909085429
195.91.224.113 15 139 10237762 20150925183845
192.92.196.6 0 1 1765 
78.155.185.77 5 67 4428038 20150922005105
37.144.5.129 3 113 8694292 20150913194128
188.18.14.115 0 2 78211 
85.233.69.185 0 1 243430 
31.130.129.130 12 246 19758695 20150915113112
5.228.55.207 20 274 20596257 20150916201540
83.220.239.54 16 197 18108929 20150918134342
2.92.211.231 1 111 8664703 20150929052822
176.195.18.40 3 113 8695315 20150929025720
109.188.124.55 8 150 13428327 20150923104708
89.178.170.75 1 61 4081661 20150920074613
178.251.136.130 0 1 33791 
217.66.157.32 12 126 9048628 20150911164826
66.102.9.41 8 127 16000292 20150913165412
192.92.196.211 0 1 2531 
83.149.8.86 1 1 10340 20150925155725
37.140.141.39 0 1 20072 
95.83.135.243 0 1 61269 
83.222.3.214 2 2 147020 20150904164419
188.254.126.173 0 1 243430 
192.92.196.228 0 1 2929 
176.15.104.181 0 1 109387 
31.44.57.144 1 1 15311 20150921104514
77.37.242.224 3 113 8694292 20150909224503
37.190.56.78 6 13 3173421 20150927215553
5.141.193.211 0 1 109387 
87.241.201.94 9 121 9004283 20150918160942
94.232.22.233 1 1 15376 20150925041726
195.9.209.48 13 170 12680134 20150912125938
62.182.77.61 19 439 37691329 20150927220139
188.32.227.120 3 113 8694955 20150919205550
178.124.174.38 0 1 243430 
176.108.160.119 0 1 44420 
178.215.96.5 10 167 12628176 20150913134358
85.233.69.184 0 1 243430 
176.59.6.60 9 147 9585111 20150904093922
82.142.131.154 0 1 243430 
46.73.217.193 7 16 449266 20150903224113
94.180.196.47 3 113 8694292 20150914065403
128.68.126.213 11 201 15554976 20150916225545
128.73.217.20 0 1 33791 
46.242.71.230 11 166 12628504 20150917215802
123.252.130.177 3 26 323692 20150914135834
195.42.96.78 10 166 12635836 20150930160555
192.92.196.19 0 2 1562 
83.220.239.124 5 122 9546505 20150929105541
80.251.118.197 14 312 29279089 20150917164901
192.92.196.234 0 1 8461 
78.46.42.117 1 1 73533 20150912060636
37.204.120.18 1 111 8664294 20150902110954
77.51.142.73 16 209 16213555 20150917114617
185.5.17.86 0 1 243430 
186.42.201.113 1 8 52574 20150911194609
46.160.79.20 0 1 33791 
85.95.179.144 0 1 33791 
94.77.186.40 0 1 33791 
177.189.117.232 1 15 196785 20150926215959
192.92.196.81 0 1 6662 
46.39.228.237 5 83 7177890 20150930102323
109.74.135.126 9 121 9004643 20150925164846
81.20.198.246 0 1 45438 
91.204.176.15 10 122 9018622 20150916074045
95.143.12.57 13 193 16124371 20150921190549
5.167.156.44 0 1 33791 
176.14.178.143 7 21 592177 20150901013404
194.190.15.41 0 1 33791 
217.26.6.110 25 413 30894476 20150929145631
192.92.196.116 1 1 6231 20150906014703
176.215.86.128 0 3 147364 
66.249.81.225 8 91 12427727 20150924085040
31.173.243.85 0 1 44420 
109.188.126.11 21 244 19846248 20150920081127
95.181.53.174 0 1 44420 
192.92.196.152 0 1 2929 
178.120.141.84 0 1 85400 
5.227.15.11 0 1 44420 
89.109.253.35 10 188 16082024 20150914091423
176.192.1.150 0 1 122217 
109.172.69.224 0 1 33791 
176.100.216.248 0 1 37658 
188.92.1.21 0 1 243430 
176.116.142.5 0 1 44420 
192.92.196.130 0 1 658 
177.13.41.18 3 51 1416245 20150911231141
192.92.196.101 0 2 3710 
89.189.1.214 0 1 33791 
94.180.159.120 1 15 954417 20150911074137
187.193.124.172 5 47 1163682 20150927063556
41.77.14.76 1 15 211350 20150916105559
192.92.196.247 0 2 12885 
192.92.196.38 0 1 2929 
2.92.130.32 3 113 8694228 20150901230133
192.92.196.252 0 1 12104 
201.43.134.131 3 44 829392 20150908135402
195.218.193.17 17 345 28942454 20150913181718
176.77.37.49 1 111 8664703 20150923180025
194.67.138.58 0 1 33791 
5.164.203.175 0 1 90160 
192.92.196.126 0 1 17902 
176.193.197.230 9 187 16067022 20150912235948
188.255.1.32 2 112 8679769 20150917221933
188.191.23.254 1 17 222034 20150902185450
93.80.70.140 3 81 4897932 20150929061526
108.43.224.221 9 119 9078916 20150924153400
2.92.248.63 10 201 18366857 20150912014432
176.122.51.134 0 1 122217 
95.37.14.250 0 1 33791 
178.129.175.1 8 135 10072505 20150924195904
178.140.12.123 8 120 8989058 20150917090033
195.222.65.94 7 119 7632176 20150903093122
66.249.89.45 1 1 15311 20150921085412
92.38.33.38 0 1 44382 
91.78.160.67 12 191 16113686 20150921231728
77.50.134.10 1 1 15033 20150904161603
217.118.93.155 4 4 60103 20150903202104
95.221.220.58 3 113 8694292 20150912205455
77.37.243.91 3 113 8694292 20150914065358
91.229.177.130 16 198 16172040 20150904144936
176.226.136.246 8 170 13675887 20150911073624
178.163.79.147 0 2 78211 
89.109.200.186 11 190 16098486 20150918140834
94.31.162.118 0 3 122631 
85.93.154.142 10 190 16083745 20150918174819
195.14.49.118 0 1 33791 
185.15.96.142 16 198 16242313 20150922134900
46.146.40.17 0 2 130538 
79.105.44.195 0 1 44420 
216.163.188.222 1 1 73590 20150912080444
138.36.33.180 7 87 5783696 20150927004838
54.219.81.216 12 32 2528723 20150912142713
2.92.151.42 7 21 592177 20150909232536
188.233.155.7 0 1 44420 
88.135.88.246 0 1 37658 
177.200.1.176 3 33 541116 20150912051044
90.171.200.106 3 44 1818962 20150922183254
130.193.157.233 0 1 312157 
95.32.86.87 0 1 44420 
178.218.56.168 10 166 12627841 20150914092956
79.172.118.134 9 49 1939887 20150912145522
77.123.195.37 0 2 78211 
77.73.104.62 19 251 19857853 20150912115341
109.196.29.43 10 188 16083294 20150929222906
192.92.196.26 0 1 2531 
78.25.120.172 1 1 15090 20150903090615
86.62.72.50 17 250 19833380 20150916154440
192.92.196.117 0 1 17902 
176.195.140.127 13 204 16157244 20150928010609
192.92.196.197 0 1 11752 
95.108.174.223 0 1 243430 
80.254.57.6 9 121 9003620 20150911142302
5.166.172.165 0 1 44420 
94.180.199.175 7 119 8973616 20150915183349
188.146.83.5 0 1 45438 
81.23.8.213 9 121 9003620 20150910091912
94.180.96.40 0 1 44420 
151.249.170.26 1 1 15374 20150925023707
2.92.209.155 3 113 8694292 20150908205214
192.92.196.87 0 1 14279 
94.159.6.222 24 430 35694173 20150917144326
128.73.202.1 0 1 44420 
85.117.113.148 0 1 3825 
93.90.240.154 0 1 37658 
91.79.253.130 9 121 9003620 20150905191940
END_VISITOR

# Date - Pages - Hits - Bandwidth - Visits
BEGIN_DAY 30
20150901 67 681 36521651 12
20150902 171 2657 215917022 23
20150903 122 1056 64990694 21
20150904 187 1731 106163698 21
20150905 62 733 54935661 10
20150906 121 1737 129292728 16
20150907 102 1202 80580193 13
20150908 107 992 65941849 15
20150909 172 2211 161901601 15
20150910 104 1227 89760961 20
20150911 194 2807 187292770 29
20150912 426 5811 445344112 60
20150913 176 2456 189348238 28
20150914 341 5078 400906383 40
20150915 212 3462 282957053 25
20150916 342 4900 324356969 30
20150917 346 4826 372041887 33
20150918 184 2385 183728625 27
20150919 202 2050 154021161 20
20150920 151 3000 236209839 22
20150921 254 3235 251347772 28
20150922 472 3901 270096586 29
20150923 249 2489 177864349 26
20150924 130 1554 132469280 22
20150925 206 2806 206851183 32
20150926 74 1185 100064957 13
20150927 127 1986 161306611 17
20150928 152 2076 168699057 18
20150929 168 2646 190722637 23
20150930 182 3056 245934238 23
END_DAY

# Session range - Number of visits
BEGIN_SESSION 7
1h+ 10
5mn-15mn 48
30s-2mn 107
2mn-5mn 68
0s-30s 441
15mn-30mn 18
30mn-1h 19
END_SESSION

# URL - Pages - Bandwidth - Entry - Exit
# The 10 first Pages must be first (order not required for others)
BEGIN_SIDER 51
/ 2096 39342439 610 356
/bitrix/templates/pikcher/css/fonts/Roboto-Regular.ttf 402 63485671 0 58
/picture-type/ 386 4837996 32 103
/bitrix/templates/pikcher/css/fonts/OpenSansRegular/OpenSansRegular.woff 371 9947459 6 2
/bitrix/templates/pikcher/css/fonts/OpenSansLight/OpenSansLight.woff 370 10152457 0 12
/bitrix/templates/pikcher/css/fonts/OpenSansBold/OpenSansBold.woff 370 10202718 3 6
/bitrix/templates/pikcher/css/fonts/OpenSansSemiBold/OpenSansSemiBold.woff 367 10104427 2 18
/bitrix/templates/pikcher/css/fonts/OpenSansExtraBold/OpenSansExtraBold.woff 328 9155160 1 3
/zakazat-kartinu-na-khoste/ 172 1931433 34 75
/review/ 110 818038 7 14
/bitrix/ 8 2905 0 0
/bitrix/templates/pikcher/css/fonts/OpenSansExtraBold/OpenSansExtraBold.eot 45 1958579 0 0
/bitrix/templates/pikcher/css/fonts/OpenSansBoldItalic/OpenSansBoldItalic.eot 11 448801 0 0
/bitrix/admin/get_start_menu.php 1 9590 0 0
/bitrix/templates/pikcher/css/fonts/OpenSansBold/OpenSansBold.ttf 52 2270827 0 13
/bitrix/templates/pikcher/email.php 25 7623 1 7
/bitrix/templates/pikcher/css/fonts/OpenSansExtraBold/OpenSansExtraBold.ttf 28 1240877 0 0
/bitrix/templates/pikcher/css/main.css.map 3 27177 0 1
/bitrix/templates/pikcher/email-order.php 3 834 0 2
/bitrix/templates/pikcher/css/fonts/OpenSansItalic/OpenSansItalic.eot 11 444093 0 0
/bitrix/templates/pikcher/css/fonts/OpenSansRegular/OpenSansRegular.ttf 51 2100134 0 11
/bitrix/admin/public_file_edit.php 25 269148 0 0
/bitrix/templates/pikcher/css/fonts/OpenSansSemiBoldItalic/OpenSansSemiBoldItalic.eot 11 445986 0 1
/bitrix/admin/iblock_section_admin.php 1 25752 0 0
/bitrix/admin/fileman_file_edit.php 8 251436 0 0
/wedding-gift/ 7 98377 3 3
/bitrix/templates/pikcher/css/fonts/OpenSansLight/OpenSansLight.ttf 31 1354498 0 0
/bitrix/gadgets/bitrix/rssreader/getdata.php 10 43908 0 0
/bitrix/admin/iblock_element_edit.php 17 1137186 0 0
/bitrix/templates/pikcher/css/fonts/OpenSansBold/OpenSansBold.eot 48 1905825 0 0
/bitrix/tools/autosave.php 40 24147 0 0
/bitrix/admin/index.php 9 44286 0 0
/bitrix/admin/public_seo_tools.php 2 22339 0 0
/avtoprogon_8a9fbfaeb1c5e39.txt 1 286 1 1
/bitrix/admin/fileman_admin.php 11 466103 0 0
/bitrix/admin/public_structure.php 3 23265 0 0
/site_rs/ 1 4234 0 0
/bitrix/admin/public_menu_edit.php 1 8954 0 0
/bitrix/admin/get_menu.php 8 9196 0 0
/bitrix/tools/seo_page_parser.php 2 7966 0 0
/bitrix/templates/pikcher/css/fonts/OpenSansLight/OpenSansLight.eot 50 1974277 0 1
/bitrix/templates/pikcher/css/fonts/OpenSansRegularItalic/OpenSansRegularItalic.eot 11 478985 0 0
/bitrix/admin/ 31 288768 0 0
/bitrix/templates/pikcher/css/fonts/OpenSansSemiBold/OpenSansSemiBold.ttf 31 1326927 1 2
/bitrix/templates/pikcher/css/fonts/OpenSansRegular/OpenSansRegular.eot 50 1898137 1 0
/bitrix/templates/pikcher/css/fonts/OpenSansExtraBoldItalic/OpenSansExtraBoldItalic.eot 11 451089 0 0
/bitrix/tools/public_session.php 2 1251 0 0
/bitrix/admin/iblock_element_admin.php 26 765375 0 0
/delivery/ 80 556044 9 21
/bitrix/admin/user_options.php 16 9520 0 1
/bitrix/templates/pikcher/css/fonts/OpenSansSemiBold/OpenSansSemiBold.eot 49 1911236 0 0
END_SIDER
